-------------------------------------------------------------------------------
Test set: com.epam.newsmanagement.dao.impl.TagDAOImplTest
-------------------------------------------------------------------------------
Tests run: 7, Failures: 0, Errors: 0, Skipped: 0, Time elapsed: 0.288 sec - in com.epam.newsmanagement.dao.impl.TagDAOImplTest
